R Workflow Mx analysis
…
# The data is melted to get all data points into one column called "value". The respective ratio is listed in the "measurement" column
melted_table <- melt(mx_table, id.vars=c("group"), variable.name = "measurement")

# calculate statistic, correct for multiple testing
statistic <- melted_table %>%
  group_by(measurement) %>%
  t_test(value ~ group, comparisons = wanted_comparisons) %>%
  adjust_pvalue(method = "fdr")

print(statistic)

## # A tibble: 36 x 11
##    measurement   .y.   group1 group2    n1    n2 statistic    df       p   p.adj
##  * <fct>         <chr> <chr>  <chr>  <int> <int>     <dbl> <dbl>   <dbl>   <dbl>
##  1 Kyn.Trp.ratio value ISO    Combi     5     5    -6.38   7.67 2.57e-4 0.00925
##  2 Kyn.Trp.ratio value Th1    Combi     5     5    -1.73   5.30 1.4 e-1 0.252  
##  3 Kyn.Trp.ratio value ISO    CPI        5     5    -0.617  7.94 5.55e-1 0.689  
##  4 Kyn.Trp.ratio value ISO    Th1        5     5    -2.03   5.92 9   e-2 0.202  
##  5 Kyn.Trp.ratio value CPI    Combi     5     5    -5.36   7.37 8.93e-4 0.0161 
##  6 Kyn.Trp.ratio value CPI    Th1        5     5    -1.58   6.23 1.62e-1 0.278  
##  7 Acylcarnitin value ISO    Combi     5     5     0.534  6.79 6.1 e-1 0.708  
##  8 Acylcarnitin value Th1    Combi     5     5     0.353  7.10 7.35e-1 0.802  
##  9 Acylcarnitin value ISO    CPI        5     5     0.852  8.00 4.19e-1 0.559  
## 10 Acylcarnitin value ISO    Th1        5     5     0.174  7.95 8.66e-1 0.879  
## #  with 26 more rows, and 1 more variable: p.adj.signif <chr>
…
